172.17.0.1 - - [17/Sep/2019:14:12:07 +0000] "GET /my_webapp HTTP/1.1" 302 -
172.17.0.1 - - [17/Sep/2019:14:12:07 +0000] "GET /my_webapp/ HTTP/1.1" 304 -
172.17.0.1 - - [17/Sep/2019:14:12:07 +0000] "GET /favicon.ico HTTP/1.1" 200 21630
172.17.0.1 - - [17/Sep/2019:14:12:34 +0000] "GET /my_webapp/carrental_home.html HTTP/1.1" 200 347
172.17.0.1 - - [17/Sep/2019:14:35:41 +0000] "GET /my_webapp/carrental_form_new.html HTTP/1.1" 200 1103
172.17.0.1 - - [17/Sep/2019:14:35:41 +0000] "GET /favicon.ico HTTP/1.1" 200 21630
172.17.0.1 - - [17/Sep/2019:14:35:45 +0000] "GET /my_webapp/new?model_vehicle=71&sub_model_vehicle=Gasolina&dies_lloguer=1&num_vehicles=1&descompte=0.0&llogar=Submit+%28GET%29 HTTP/1.1" 200 69
172.17.0.1 - - [17/Sep/2019:14:35:58 +0000] "GET /favicon.ico HTTP/1.1" 200 21630
172.17.0.1 - - [17/Sep/2019:14:36:03 +0000] "GET /my_webapp/new?model_vehicle=54&sub_model_vehicle=Diesel&dies_lloguer=1&num_vehicles=1&descompte=0.0&llogar=Submit+%28GET%29 HTTP/1.1" 500 69
172.17.0.1 - - [17/Sep/2019:14:36:15 +0000] "GET /my_webapp/new?model_vehicle=54&sub_model_vehicle=Diesel&dies_lloguer=1&num_vehicles=1&descompte=0.0&llogar=Submit+%28GET%29 HTTP/1.1" 500 69
172.17.0.1 - - [17/Sep/2019:14:36:23 +0000] "GET /my_webapp/new?model_vehicle=139&sub_model_vehicle=Diesel&dies_lloguer=1&num_vehicles=1&descompte=0.0&llogar=Submit+%28GET%29 HTTP/1.1" 500 69
